{
  "cviceni": {
    "version": {
      "global": "<%= version %>",
      "content": 3
    },
    "language": "cs",
    "katalog": [
      "test",
      "public"
    ],
    "id": 6,
    "slug": "promeny-obce-horni-vysoke",
    "nazev": "Proměny obce Horní Vysoké",
    "autor": [
      "Terezie Vávrová"
    ],
    "klicovaSlova": [
      "vysídlení",
      "proměny krajiny",
      "modernizace",
      "historická změna",
      "příčiny a důsledky",
      "analýza fotografií"
    ],
    "anotace": {
      "ucitel": "Cvičení ilustruje historickou změnu v konkrétní obci. Žáci srovnávají fotografie totožného místa v obci z let 1925 a 2004, hledají podobnosti a rozdíly. Výstup z této jednoduché popisné práce (ve stylu úkolů pro předškoláky „najdi 10 rozdílů“) by je měl motivovat k zájmu a pátrání po historických událostech, jež mohly být příčinou těchto změn. Cvičení lze spojit s výkladem proměn české společnosti po skončení druhé světové války a proměn české krajiny včetně procesů jako urbanizace, kolektivizace ad.",
      "verejna": "Co nám může prozradit fotografie jednoho místa z odstupu 80 let? Místa kolem nás se přece nijak zásadně nemění… A přece! Co mohlo mít na dnešní podobu obce vliv? Jak se změnil tamní život? Prohlédněte si fotografie a najděte co nejvíc rozdílů, dozvíte se víc o proměnách české krajiny."
    },
    "trvani": 25,
    "funkce": [
      "lupa",
      "text",
      "svg",
      "znacky"
    ],
    "pdf": {
      "doporucenyPostup": "promeny-obce-horni-vysoke.pdf"
    },
    "uvodniObrazek": "promeny-obce-horni-vysoke/pic-00-1280w.jpg"
  },
  "slajd": [
    {
      "class": "",
      "zadani": {
        "hlavni": "Na fotografiích vidíte stejné místo. Prohlédněte si obě fotografie.",
        "rozsirujici": ""
      },
      "napoveda": {
        "aktivity": [
          "lupa"
        ],
        "text": "Při kliknutí levým tlačítkem do obrazu lupa přiblíží část obrazu ve výřezu."
      },
      "prameny": [
        "promeny-obce-horni-vysoke/pic-00-1280w.jpg",
        "promeny-obce-horni-vysoke/pic-01-1280w.jpg"
      ],
      "popisky": [
        "Ober-Weissig, 1925. Zdroj: Antikomplex, z.s.",
        "Horní Vysoké, 2004. Zdroj: Antikomplex, z.s."
      ]
    },
    {
      "class": "half-slide-previous svg-module",
      "zadani": {
        "hlavni": "Co se změnilo?",
        "rozsirujici": "Červeně ve fotografiích označte, co se změnilo, a modře, co zůstalo stejné. Popište označené body."
      },
      "napoveda": {
        "aktivity": [
          "svg"
        ],
        "text": "Kliknutím na snímek levým tlačítkem myši označujete bod. Nakliknutím na bod pravým tlačítkem otevřete menu s nabídkou úkonů: změnit barvu bodu, (T) doplnit textový komentář, (X) smazat nakliknutý objekt."
      },
      "svg": {
        "soubory": [
          {
            "id": "svg-1",
            "soubor": "promeny-obce-horni-vysoke/pic-00-1024w.jpg",
            "funkce": [
              "text",
              "znacky"
            ]
          },
          {
            "id": "svg-2",
            "soubor": "promeny-obce-horni-vysoke/pic-01-1024w.jpg",
            "funkce": [
              "text",
              "znacky"
            ]
          }
        ]
      },
      "popisky": [
        "Ober-Weissig, 1925. Zdroj: Antikomplex, z.s.",
        "Horní Vysoké, 2004. Zdroj: Antikomplex, z.s."
      ]
    },
    {
      "class": "half-slide-active column",
      "zadani": {
        "hlavni": "Proč se to změnilo?",
        "rozsirujici": ""
      },
      "napoveda": {
        "aktivity": [
          "text"
        ],
        "text": "Do boxu pro text zapisujete odpověď na otázku, nebo jiný komentář (dle zadání)."
      },
      "uzivatelskyText": {
        "otazky": [
          {
            "id": "text-1",
            "zadani": "Zamyslete se nad tím, co vedlo k vyznačeným změnám. Napište, jaké události mohly mít na tuto proměnu vliv a proč.",
            "instrukce": "Myslím si, že…",
            "minDelka": 1,
            "maxDelka": 400
          },
          {
            "id": "text-2",
            "zadani": "Zjistěte z fotografií, jak se změnila funkce domu a život v obci.",
            "instrukce": "Myslím si, že…",
            "minDelka": 1,
            "maxDelka": 400
          }
        ]
      }
    }
  ]
}
